%YAML 1.1
%TAG !u! tag:unity3d.com,2011:
--- !u!1 &2855229960219488889
GameObject:
  m_ObjectHideFlags: 0
  m_CorrespondingSourceObject: {fileID: 0}
  m_PrefabInstance: {fileID: 0}
  m_PrefabAsset: {fileID: 0}
  serializedVersion: 6
  m_Component:
  - component: {fileID: 3230207012857915587}
  m_Layer: 0
  m_Name: Victory Idle
  m_TagString: Untagged
  m_Icon: {fileID: 0}
  m_NavMeshLayer: 0
  m_StaticEditorFlags: 0
  m_IsActive: 1
--- !u!4 &3230207012857915587
Transform:
  m_ObjectHideFlags: 0
  m_CorrespondingSourceObject: {fileID: 0}
  m_PrefabInstance: {fileID: 0}
  m_PrefabAsset: {fileID: 0}
  m_GameObject: {fileID: 2855229960219488889}
  m_LocalRotation: {x: -0, y: 0.92387867, z: -0, w: 0.38268548}
  m_LocalPosition: {x: 5.537, y: 10.174, z: 137.865}
  m_LocalScale: {x: 0.7, y: 0.7, z: 0.7}
  m_Children:
  - {fileID: 6550900605897835776}
  m_Father: {fileID: 0}
  m_RootOrder: 0
  m_LocalEulerAnglesHint: {x: 0, y: 135, z: 0}
--- !u!95 &3767358139078833204
Animator:
  serializedVersion: 3
  m_ObjectHideFlags: 0
  m_CorrespondingSourceObject: {fileID: 0}
  m_PrefabInstance: {fileID: 0}
  m_PrefabAsset: {fileID: 0}
  m_GameObject: {fileID: 5882450740024106938}
  m_Enabled: 0
  m_Avatar: {fileID: 0}
  m_Controller: {fileID: 9100000, guid: 9e52a27a6497c4b429862859431f26de, type: 2}
  m_CullingMode: 0
  m_UpdateMode: 0
  m_ApplyRootMotion: 0
  m_LinearVelocityBlending: 0
  m_WarningMessage: 
  m_HasTransformHierarchy: 1
  m_AllowConstantClipSamplingOptimization: 1
  m_KeepAnimatorControllerStateOnDisable: 0
--- !u!114 &1798422953679932214
MonoBehaviour:
  m_ObjectHideFlags: 0
  m_CorrespondingSourceObject: {fileID: 0}
  m_PrefabInstance: {fileID: 0}
  m_PrefabAsset: {fileID: 0}
  m_GameObject: {fileID: 5882450740024106938}
  m_Enabled: 1
  m_EditorHideFlags: 0
  m_Script: {fileID: 11500000, guid: 15519e61bf0eb5b44b6c45a17bfcf017, type: 3}
  m_Name: 
  m_EditorClassIdentifier: 
--- !u!1001 &6729433485784900331
PrefabInstance:
  m_ObjectHideFlags: 0
  serializedVersion: 2
  m_Modification:
    m_TransformParent: {fileID: 3230207012857915587}
    m_Modifications:
    - target: {fileID: -8679921383154817045, guid: 37bff89177c3f854c9e28b3d5d021e9b, type: 3}
      propertyPath: m_RootOrder
      value: 0
      objectReference: {fileID: 0}
    - target: {fileID: -8679921383154817045, guid: 37bff89177c3f854c9e28b3d5d021e9b, type: 3}
      propertyPath: m_LocalScale.x
      value: 1.4102
      objectReference: {fileID: 0}
    - target: {fileID: -8679921383154817045, guid: 37bff89177c3f854c9e28b3d5d021e9b, type: 3}
      propertyPath: m_LocalScale.y
      value: 1.4102
      objectReference: {fileID: 0}
    - target: {fileID: -8679921383154817045, guid: 37bff89177c3f854c9e28b3d5d021e9b, type: 3}
      propertyPath: m_LocalScale.z
      value: 1.4102
      objectReference: {fileID: 0}
    - target: {fileID: -8679921383154817045, guid: 37bff89177c3f854c9e28b3d5d021e9b, type: 3}
      propertyPath: m_LocalPosition.x
      value: 0
      objectReference: {fileID: 0}
    - target: {fileID: -8679921383154817045, guid: 37bff89177c3f854c9e28b3d5d021e9b, type: 3}
      propertyPath: m_LocalPosition.y
      value: -0.726
      objectReference: {fileID: 0}
    - target: {fileID: -8679921383154817045, guid: 37bff89177c3f854c9e28b3d5d021e9b, type: 3}
      propertyPath: m_LocalPosition.z
      value: 0
      objectReference: {fileID: 0}
    - target: {fileID: -8679921383154817045, guid: 37bff89177c3f854c9e28b3d5d021e9b, type: 3}
      propertyPath: m_LocalRotation.w
      value: 1
      objectReference: {fileID: 0}
    - target: {fileID: -8679921383154817045, guid: 37bff89177c3f854c9e28b3d5d021e9b, type: 3}
      propertyPath: m_LocalRotation.x
      value: 0
      objectReference: {fileID: 0}
    - target: {fileID: -8679921383154817045, guid: 37bff89177c3f854c9e28b3d5d021e9b, type: 3}
      propertyPath: m_LocalRotation.y
      value: 0
      objectReference: {fileID: 0}
    - target: {fileID: -8679921383154817045, guid: 37bff89177c3f854c9e28b3d5d021e9b, type: 3}
      propertyPath: m_LocalRotation.z
      value: 0
      objectReference: {fileID: 0}
    - target: {fileID: -8679921383154817045, guid: 37bff89177c3f854c9e28b3d5d021e9b, type: 3}
      propertyPath: m_LocalEulerAnglesHint.x
      value: 0
      objectReference: {fileID: 0}
    - target: {fileID: -8679921383154817045, guid: 37bff89177c3f854c9e28b3d5d021e9b, type: 3}
      propertyPath: m_LocalEulerAnglesHint.y
      value: 0
      objectReference: {fileID: 0}
    - target: {fileID: -8679921383154817045, guid: 37bff89177c3f854c9e28b3d5d021e9b, type: 3}
      propertyPath: m_LocalEulerAnglesHint.z
      value: 0
      objectReference: {fileID: 0}
    - target: {fileID: -7682959753091916122, guid: 37bff89177c3f854c9e28b3d5d021e9b, type: 3}
      propertyPath: m_Materials.Array.data[0]
      value: 
      objectReference: {fileID: 2100000, guid: a1fc5bfdca3a76043ae57ffdfe687902, type: 2}
    - target: {fileID: 919132149155446097, guid: 37bff89177c3f854c9e28b3d5d021e9b, type: 3}
      propertyPath: m_Name
      value: Victory Idle
      objectReference: {fileID: 0}
    - target: {fileID: 4870310691698682757, guid: 37bff89177c3f854c9e28b3d5d021e9b, type: 3}
      propertyPath: m_LocalPosition.y
      value: -0.251
      objectReference: {fileID: 0}
    - target: {fileID: 5465940246521907071, guid: 37bff89177c3f854c9e28b3d5d021e9b, type: 3}
      propertyPath: m_LocalPosition.y
      value: 1.279
      objectReference: {fileID: 0}
    - target: {fileID: 6581400656284607061, guid: 37bff89177c3f854c9e28b3d5d021e9b, type: 3}
      propertyPath: m_LocalPosition.y
      value: 0.266
      objectReference: {fileID: 0}
    m_RemovedComponents: []
  m_SourcePrefab: {fileID: 100100000, guid: 37bff89177c3f854c9e28b3d5d021e9b, type: 3}
--- !u!1 &5882450740024106938 stripped
GameObject:
  m_CorrespondingSourceObject: {fileID: 919132149155446097, guid: 37bff89177c3f854c9e28b3d5d021e9b, type: 3}
  m_PrefabInstance: {fileID: 6729433485784900331}
  m_PrefabAsset: {fileID: 0}
--- !u!4 &6550900605897835776 stripped
Transform:
  m_CorrespondingSourceObject: {fileID: -8679921383154817045, guid: 37bff89177c3f854c9e28b3d5d021e9b, type: 3}
  m_PrefabInstance: {fileID: 6729433485784900331}
  m_PrefabAsset: {fileID: 0}
